{
  "project_info": {
    "project_number": "748511509234",
    "project_id": "sota-app-bike",
    "storage_bucket": "sota-app-bike.appspot.com"
  },
  "client": [
    {
      "client_info": {
        "mobilesdk_app_id": "1:748511509234:android:631af885f882a296266e6b",
        "android_client_info": {
          "package_name": "com.sotavn.appbike"
        }
      },
      "oauth_client": [
        {
          "client_id": "748511509234-7av9ef65ossdj34oc9va3gt4iginn75o.apps.googleusercontent.com",
          "client_type": 1,
          "android_info": {
            "package_name": "com.sotavn.appbike",
            "certificate_hash": "6660f737937771258a50a84c0f70b43e4690a080"
          }
        },
        {
          "client_id": "748511509234-8c7qs63k86n6kq5ovj9ld1h642mu1if9.apps.googleusercontent.com",
          "client_type": 1,
          "android_info": {
            "package_name": "com.sotavn.appbike",
            "certificate_hash": "028472b55e5afbb28761f15ee8f55f2bdf353186"
          }
        },
        {
          "client_id": "748511509234-93f7jbbg7c56nlmotam0s87bickfgdgo.apps.googleusercontent.com",
          "client_type": 1,
          "android_info": {
            "package_name": "com.sotavn.appbike",
            "certificate_hash": "0b911e9e31cd00bdecec7bb5e9a04e6bc973543e"
          }
        },
        {
          "client_id": "748511509234-o0e9rgiib1975tlloucsm3gn9drl1vu1.apps.googleusercontent.com",
          "client_type": 1,
          "android_info": {
            "package_name": "com.sotavn.appbike",
            "certificate_hash": "7fe11bb60b85e3b77024eae296f036872ccbeec4"
          }
        },
        {
          "client_id": "748511509234-ttpp74miilch6n0o7cfn3pned6h7a7dd.apps.googleusercontent.com",
          "client_type": 3
        }
      ],
      "api_key": [
        {
          "current_key": "AIzaSyC2xsYu2fFmQUQnOBrDEW2yB2MOs2-iA5Y"
        }
      ],
      "services": {
        "appinvite_service": {
          "other_platform_oauth_client": [
            {
              "client_id": "748511509234-ttpp74miilch6n0o7cfn3pned6h7a7dd.apps.googleusercontent.com",
              "client_type": 3
            },
            {
              "client_id": "748511509234-mlu96mv9vnkd7hpsm30b9prdbnrftq7b.apps.googleusercontent.com",
              "client_type": 2,
              "ios_info": {
                "bundle_id": "com.sotavn.bike"
              }
            }
          ]
        }
      }
    },
    {
      "client_info": {
        "mobilesdk_app_id": "1:748511509234:android:febfb13389489899266e6b",
        "android_client_info": {
          "package_name": "com.sotavn.bike"
        }
      },
      "oauth_client": [
        {
          "client_id": "748511509234-jt9pqgioa51smehjrjulhdjv6qi4fjfi.apps.googleusercontent.com",
          "client_type": 1,
          "android_info": {
            "package_name": "com.sotavn.bike",
            "certificate_hash": "6660f737937771258a50a84c0f70b43e4690a080"
          }
        },
        {
          "client_id": "748511509234-n1tvv3k6jrr7ucu21h2h310l5as86muv.apps.googleusercontent.com",
          "client_type": 1,
          "android_info": {
            "package_name": "com.sotavn.bike",
            "certificate_hash": "0b911e9e31cd00bdecec7bb5e9a04e6bc973543e"
          }
        },
        {
          "client_id": "748511509234-ttpp74miilch6n0o7cfn3pned6h7a7dd.apps.googleusercontent.com",
          "client_type": 3
        }
      ],
      "api_key": [
        {
          "current_key": "AIzaSyC2xsYu2fFmQUQnOBrDEW2yB2MOs2-iA5Y"
        }
      ],
      "services": {
        "appinvite_service": {
          "other_platform_oauth_client": [
            {
              "client_id": "748511509234-ttpp74miilch6n0o7cfn3pned6h7a7dd.apps.googleusercontent.com",
              "client_type": 3
            },
            {
              "client_id": "748511509234-mlu96mv9vnkd7hpsm30b9prdbnrftq7b.apps.googleusercontent.com",
              "client_type": 2,
              "ios_info": {
                "bundle_id": "com.sotavn.bike"
              }
            }
          ]
        }
      }
    }
  ],
  "configuration_version": "1"
}