<svg id="ic_cart" xmlns="http://www.w3.org/2000/svg" width="20.128" height="18.422" viewBox="0 0 20.128 18.422">
  <g id="Group_19" data-name="Group 19" transform="translate(13.427 13.402)">
    <g id="Group_18" data-name="Group 18">
      <path id="Path_33" data-name="Path 33" d="M344.057,362.612a2.51,2.51,0,1,0,2.51,2.51A2.513,2.513,0,0,0,344.057,362.612Zm0,3.514a1,1,0,1,1,1-1A1,1,0,0,1,344.057,366.126Z" transform="translate(-341.547 -362.612)" fill="#ed4628"/>
    </g>
  </g>
  <g id="Group_21" data-name="Group 21" transform="translate(0 0)">
    <g id="Group_20" data-name="Group 20">
      <path id="Path_34" data-name="Path 34" d="M19.968,25.407a.752.752,0,0,0-.593-.289H4.648L3.97,22.283a.753.753,0,0,0-.732-.578H.753a.753.753,0,1,0,0,1.506h1.89L5.09,33.45a.753.753,0,0,0,.732.578H17.543a.753.753,0,0,0,.731-.572l1.832-7.4A.754.754,0,0,0,19.968,25.407Zm-3.014,7.115H6.417l-1.41-5.9H18.413Z" transform="translate(0 -21.705)" fill="#ed4628"/>
    </g>
  </g>
  <g id="Group_23" data-name="Group 23" transform="translate(4.317 13.402)">
    <g id="Group_22" data-name="Group 22">
      <path id="Path_35" data-name="Path 35" d="M112.316,362.612a2.51,2.51,0,1,0,2.51,2.51A2.513,2.513,0,0,0,112.316,362.612Zm0,3.514a1,1,0,1,1,1-1A1,1,0,0,1,112.316,366.126Z" transform="translate(-109.806 -362.612)" fill="#ed4628"/>
    </g>
  </g>
</svg>
