<svg xmlns="http://www.w3.org/2000/svg" xmlns:xlink="http://www.w3.org/1999/xlink" width="25" height="25" viewBox="0 0 25 25">
  <defs>
    <linearGradient id="linear-gradient" x1="0.5" x2="0.5" y2="1" gradientUnits="objectBoundingBox">
      <stop offset="0" stop-color="#136F9B"/>
      <stop offset="1" stop-color="#136F9B"/>
    </linearGradient>
  </defs>
  <g id="ic_dat_hang" transform="translate(-18 -641)">
    <circle id="Ellipse_3" data-name="Ellipse 3" cx="12.5" cy="12.5" r="12.5" transform="translate(18 641)" fill="url(#linear-gradient)"/>
    <g id="shopping-cart_3_" data-name="shopping-cart (3)" transform="translate(25.143 648.986)">
      <path id="Path_30" data-name="Path 30" d="M10.555,43.312a.74.74,0,0,0-.582-.279H7.909L6.79,40.471a.314.314,0,1,0-.575.251l1.009,2.311H3.49L4.5,40.722a.314.314,0,1,0-.575-.251L2.8,43.033H.741a.74.74,0,0,0-.582.279.723.723,0,0,0-.141.615l1.1,4.813a.735.735,0,0,0,.723.571H8.871a.735.735,0,0,0,.723-.571l1.1-4.813a.723.723,0,0,0-.141-.615ZM8.871,48.683H1.843a.112.112,0,0,1-.111-.083L.63,43.787A.1.1,0,0,1,.65,43.7a.114.114,0,0,1,.091-.043H2.531l-.082.188a.314.314,0,1,0,.575.251l.192-.44H7.5l.192.44a.314.314,0,0,0,.575-.251l-.082-.188H9.973a.114.114,0,0,1,.091.043.1.1,0,0,1,.02.083L8.982,48.6a.112.112,0,0,1-.111.083Z" transform="translate(0 -40.283)" fill="#fff"/>
      <path id="Path_31" data-name="Path 31" d="M151.314,266.717a.314.314,0,0,0-.314.314v2.3a.314.314,0,1,0,.628,0v-2.3A.314.314,0,0,0,151.314,266.717Z" transform="translate(-147.84 -261.979)" fill="#fff"/>
      <path id="Path_32" data-name="Path 32" d="M241.314,266.717a.314.314,0,0,0-.314.314v2.3a.314.314,0,1,0,.628,0v-2.3A.314.314,0,0,0,241.314,266.717Z" transform="translate(-235.957 -261.979)" fill="#fff"/>
      <path id="Path_33" data-name="Path 33" d="M331.314,266.717a.314.314,0,0,0-.314.314v2.3a.314.314,0,1,0,.628,0v-2.3A.314.314,0,0,0,331.314,266.717Z" transform="translate(-324.073 -261.979)" fill="#fff"/>
    </g>
  </g>
</svg>
