<svg xmlns="http://www.w3.org/2000/svg" width="25.968" height="12.984" viewBox="0 0 25.968 12.984">
  <g id="ic_menu" transform="translate(0 -96.243)">
    <g id="Menu_1_" transform="translate(0 96.243)">
      <path id="Path_1" data-name="Path 1" d="M.811,97.866H25.157a.811.811,0,0,0,0-1.623H.811a.811.811,0,0,0,0,1.623Z" transform="translate(0 -96.243)" fill="#136F9B"/>
      <path id="Path_2" data-name="Path 2" d="M25.157,180.455H.811a.811.811,0,0,0,0,1.623H25.157a.811.811,0,0,0,0-1.623Z" transform="translate(0 -174.774)" fill="#136F9B"/>
      <path id="Path_3" data-name="Path 3" d="M137.345,264.667h-16.23a.811.811,0,1,0,0,1.623h16.23a.811.811,0,1,0,0-1.623Z" transform="translate(-112.188 -253.306)" fill="#136F9B"/>
    </g>
  </g>
</svg>
